Construction number,LDF tangent stiffness [N/mm]
HI4351-00,212.3
HI4351-00,212.5
HI4351-00,212.1
HI4352-00,211.6
HI4352-00,213.1
HI4352-00,212
HI4350-00,209.9
HI4350-00,211.3
HI4350-00,211.4
HI4353-00,208.9
HI4353-00,211.8
HI4353-00,211.2
HG0230-04,209.8
HG0230-04,210.8
HG0230-04,210.6
HG0230-04,217.6
HG0230-04,217.6
HG0230-04,217.7
